/caltech/set06/V000/
/caltech/set06/V001/
/caltech/set06/V002/
/caltech/set06/V003/
/caltech/set06/V004/
/caltech/set06/V005/
/caltech/set06/V006/
/caltech/set06/V007/
/caltech/set06/V008/
/caltech/set06/V009/
/caltech/set06/V010/
/caltech/set06/V011/
/caltech/set06/V012/
/caltech/set06/V013/
/caltech/set06/V014/
/caltech/set06/V015/
/caltech/set06/V016/
/caltech/set06/V017/
/caltech/set06/V018/
/caltech/set07/V000/
/caltech/set07/V001/
/caltech/set07/V002/
/caltech/set07/V003/
/caltech/set07/V004/
/caltech/set07/V005/
/caltech/set07/V006/
/caltech/set07/V007/
/caltech/set07/V008/
/caltech/set07/V009/
/caltech/set07/V010/
/caltech/set07/V011/
/caltech/set08/V000/
/caltech/set08/V001/
/caltech/set08/V002/
/caltech/set08/V003/
/caltech/set08/V004/
/caltech/set08/V005/
/caltech/set08/V006/
/caltech/set08/V007/
/caltech/set08/V008/
/caltech/set08/V009/
/caltech/set08/V010/
/caltech/set09/V000/
/caltech/set09/V001/
/caltech/set09/V002/
/caltech/set09/V003/
/caltech/set09/V004/
/caltech/set09/V005/
/caltech/set09/V006/
/caltech/set09/V007/
/caltech/set09/V008/
/caltech/set09/V009/
/caltech/set09/V010/
/caltech/set09/V011/
/caltech/set10/V000/
/caltech/set10/V001/
/caltech/set10/V002/
/caltech/set10/V003/
/caltech/set10/V004/
/caltech/set10/V005/
/caltech/set10/V006/
/caltech/set10/V007/
/caltech/set10/V008/
/caltech/set10/V009/
/caltech/set10/V010/
/caltech/set10/V011/